{
    "update_frequency" : 10,
    "sites": [
        {
            "id" : "facebook.com",
            "url": "http://facebook.com",
            "rules": [
                {
                    "type": "selector",
                    "rule": "#mercurymessagesCountValue, #notificationsCountValue",
                    "function": "length",
                    "function_args" : [],
                    "operator": ">",
                    "value": 0
                }
            ]
        },
        {
            "id" : "mail.google.com",
            "url": "https://mail.google.com/mail",
            "rules": [
                {
                    "type": "selector",
                    "rule": ".J-Ke .n0",
                    "function": "value",
                    "function_args" : [],
                    "operator": "regexp_contains",
                    "value": "[0-9]+"
                },
                {
                    "type": "selector",
                    "rule": ".J-Ke .n0",
                    "function" : "attr",
                    "function_args" : ["href"],
                    "operator": "starts_with",
                    "value": "https://mail.google.com/mail/"
                }
            ]
         },
        {
            "id" : "favsync.slack.com",
            "url": "https://favsync.slack.com/",
            "rules": [
                {
                    "type": "selector",
                    "rule": ".unread_highlight",
                    "function": "length",
                    "function_args" : [],
                    "operator": ">",
                    "value": "0"
                }
            ]
         },
        {
            "id" : "vk.com",
            "url": "https://vk.com/",
            "rules": [
                {
                    "type": "selector",
                    "rule": ".inl_bl .left_count",
                    "function": "length",
                    "function_args" : [],
                    "operator": ">",
                    "value": "0"
                }
            ]
         },
        {
            "id" : "ebay.com",
            "url": "https://ebay.com/",
            "rules": [
                {
                    "type": "selector",
                    "rule": "#gh-cart-n",
                    "function": "length",
                    "function_args" : [],
                    "operator": ">",
                    "value": "0"
                }
            ]
        }
    ]
}